dump.vcd
$date
	Thu Apr 27 18:13:59 2023
$end
$version
	ModelSim Version 2020.1
$end
$timescale
	1ps
$end

$scope module robertsonstest $end
$var parameter 32 ! W $end
$var reg 1 " clk $end
$var reg 1 # reset $end
$var reg 8 $ multiplier [7:0] $end
$var reg 8 % multiplicand [7:0] $end
$var integer 32 & score $end
$var wire 1 ' product [15] $end
$var wire 1 ( product [14] $end
$var wire 1 ) product [13] $end
$var wire 1 * product [12] $end
$var wire 1 + product [11] $end
$var wire 1 , product [10] $end
$var wire 1 - product [9] $end
$var wire 1 . product [8] $end
$var wire 1 / product [7] $end
$var wire 1 0 product [6] $end
$var wire 1 1 product [5] $end
$var wire 1 2 product [4] $end
$var wire 1 3 product [3] $end
$var wire 1 4 product [2] $end
$var wire 1 5 product [1] $end
$var wire 1 6 product [0] $end
$var wire 1 7 done $end
$var integer 32 8 cycle $end
$var integer 32 9 cycle1 $end
$var integer 32 : cycle2 $end
$var reg 16 ; expected_product [15:0] $end

$scope task rslt_disp $end
$upscope $end

$scope task rslt_disp2 $end
$upscope $end
$upscope $end
$enddefinitions $end
#0
$dumpvars
0"
1#
b0 $
b0 %
bx ;
b1000 !
b0 &
b0 8
b0 9
b0 :
x6
x5
x4
x3
x2
x1
x0
x/
x.
x-
x,
x+
x*
x)
x(
x'
07
$end
#5000
1"
#10000
0#
b1 9
b0 ;
0"
b1 8
#15000
1"
0.
0-
0,
0+
0*
0)
0(
0'
#20000
0"
b10 8
#25000
1"
06
05
04
03
02
01
00
0/
#30000
0"
b11 8
#35000
1"
#40000
0"
b100 8
#45000
1"
#50000
0"
b101 8
#55000
1"
#60000
0"
b110 8
#65000
1"
#70000
0"
b111 8
#75000
1"
#80000
0"
b1000 8
#85000
1"
#90000
0"
b1001 8
#95000
1"
#100000
0"
b1010 8
#105000
1"
#110000
0"
b1011 8
#115000
1"
#120000
0"
b1100 8
#125000
1"
#130000
0"
b1101 8
#135000
1"
#140000
0"
b1110 8
#145000
1"
#150000
0"
b1111 8
#155000
1"
#160000
0"
b10000 8
#165000
1"
#170000
0"
b10001 8
#175000
1"
#180000
0"
b10010 8
#185000
1"
#190000
0"
b10011 8
#195000
1"
#200000
0"
b10100 8
#205000
1"
#210000
0"
b10101 8
#215000
1"
#220000
0"
b10110 8
#225000
1"
#230000
0"
b10111 8
#235000
1"
#240000
0"
b11000 8
#245000
1"
#250000
0"
b11001 8
#255000
1"
#260000
0"
b11010 8
#265000
1"
#270000
0"
b11011 8
#275000
1"
#280000
0"
b11100 8
#285000
1"
#290000
0"
b11101 8
#295000
1"
#300000
0"
b11110 8
#305000
1"
#310000
0"
b11111 8
#315000
1"
#320000
0"
b100000 8
#325000
1"
#330000
0"
b100001 8
#335000
1"
#340000
0"
b100010 8
#345000
1"
#350000
0"
b100011 8
#355000
1"
#360000
0"
b100100 8
#365000
1"
#370000
0"
b100101 8
#375000
1"
#380000
0"
b100110 8
#385000
1"
#390000
0"
b100111 8
#395000
1"
#400000
0"
b101000 8
#405000
1"
#410000
0"
b101001 8
#415000
1"
#420000
0"
b101010 8
#425000
1"
#430000
0"
b101011 8
#435000
1"
#440000
0"
b101100 8
#445000
1"
#450000
0"
b101101 8
#455000
1"
#460000
0"
b101110 8
#465000
1"
#470000
0"
b101111 8
#475000
1"
#480000
0"
b110000 8
#485000
1"
#490000
0"
b110001 8
#495000
1"
#500000
0"
b110010 8
#505000
1"
#510000
0"
b110011 8
#515000
1"
#520000
0"
b110100 8
#525000
1"
#530000
0"
b110101 8
#535000
1"
#540000
0"
b110110 8
#545000
1"
#550000
0"
b110111 8
#555000
1"
#560000
0"
b111000 8
#565000
1"
#570000
0"
b111001 8
#575000
1"
#580000
0"
b111010 8
#585000
1"
x6
x5
x4
x3
x2
x1
x0
x/
x.
x-
x,
x+
x*
x)
x(
x'
17
#590000
0"
b111011 8
#595000
1"
#600000
0"
b111100 8
#605000
1"
#610000
0"
b111101 8
#615000
1"
#620000
0"
b111110 8
#625000
b101 $
b110 %
1#
1"
07
#630000
0"
b111111 8
#635000
0#
b10 9
b11110 ;
1"
0.
0-
0,
0+
0*
0)
0(
0'
#640000
0"
b1000000 8
#645000
1"
16
05
14
03
02
01
00
0/
#650000
0"
b1000001 8
#655000
1"
#660000
0"
b1000010 8
#665000
1"
#670000
0"
b1000011 8
#675000
1"
#680000
0"
b1000100 8
#685000
1"
#690000
0"
b1000101 8
#695000
1"
#700000
0"
b1000110 8
#705000
1"
#710000
0"
b1000111 8
#715000
1"
#720000
0"
b1001000 8
#725000
1"
#730000
0"
b1001001 8
#735000
1"
#740000
0"
b1001010 8
#745000
1"
#750000
0"
b1001011 8
#755000
1"
#760000
0"
b1001100 8
#765000
1"
#770000
0"
b1001101 8
#775000
1"
#780000
0"
b1001110 8
#785000
1"
#790000
0"
b1001111 8
#795000
1"
#800000
0"
b1010000 8
#805000
1"
#810000
0"
b1010001 8
#815000
1"
#820000
0"
b1010010 8
#825000
1"
#830000
0"
b1010011 8
#835000
1"
#840000
0"
b1010100 8
#845000
1"
#850000
0"
b1010101 8
#855000
1"
#860000
0"
b1010110 8
#865000
1"
#870000
0"
b1010111 8
#875000
1"
#880000
0"
b1011000 8
#885000
1"
#890000
0"
b1011001 8
#895000
1"
#900000
0"
b1011010 8
#905000
1"
#910000
0"
b1011011 8
#915000
1"
#920000
0"
b1011100 8
#925000
1"
#930000
0"
b1011101 8
#935000
1"
#940000
0"
b1011110 8
#945000
1"
#950000
0"
b1011111 8
#955000
1"
#960000
0"
b1100000 8
#965000
1"
#970000
0"
b1100001 8
#975000
1"
#980000
0"
b1100010 8
#985000
1"
#990000
0"
b1100011 8
#995000
1"
#1000000
0"
b1100100 8
#1005000
1"
#1010000
0"
b1100101 8
#1015000
1"
#1020000
0"
b1100110 8
#1025000
1"
#1030000
0"
b1100111 8
#1035000
1"
#1040000
0"
b1101000 8
#1045000
1"
#1050000
0"
b1101001 8
#1055000
1"
#1060000
0"
b1101010 8
#1065000
1"
#1070000
0"
b1101011 8
#1075000
1"
#1080000
0"
b1101100 8
#1085000
1"
#1090000
0"
b1101101 8
#1095000
1"
#1100000
0"
b1101110 8
#1105000
1"
#1110000
0"
b1101111 8
#1115000
1"
#1120000
0"
b1110000 8
#1125000
1"
#1130000
0"
b1110001 8
#1135000
1"
#1140000
0"
b1110010 8
#1145000
1"
#1150000
0"
b1110011 8
#1155000
1"
#1160000
0"
b1110100 8
#1165000
1"
#1170000
0"
b1110101 8
#1175000
1"
#1180000
0"
b1110110 8
#1185000
1"
#1190000
0"
b1110111 8
#1195000
1"
#1200000
0"
b1111000 8
#1205000
1"
x6
x5
x4
x3
x2
x1
x0
x/
x.
x-
x,
x+
x*
x)
x(
x'
17
#1210000
0"
b1111001 8
#1215000
1"
#1220000
0"
b1111010 8
#1225000
1"
#1230000
0"
b1111011 8
#1235000
1"
#1240000
0"
b1111100 8
#1245000
b111 $
b11111011 %
1#
1"
07
#1250000
0"
b1111101 8
#1255000
0#
b11 9
b1111111111011101 ;
1"
0.
0-
0,
0+
0*
0)
0(
0'
#1260000
0"
b1111110 8
#1265000
1"
16
15
14
03
02
01
00
0/
#1270000
0"
b1111111 8
#1275000
1"
#1280000
0"
b10000000 8
#1285000
1"
#1290000
0"
b10000001 8
#1295000
1"
#1300000
0"
b10000010 8
#1305000
1"
#1310000
0"
b10000011 8
#1315000
1"
#1320000
0"
b10000100 8
#1325000
1"
#1330000
0"
b10000101 8
#1335000
1"
#1340000
0"
b10000110 8
#1345000
1"
#1350000
0"
b10000111 8
#1355000
1"
#1360000
0"
b10001000 8
#1365000
1"
#1370000
0"
b10001001 8
#1375000
1"
#1380000
0"
b10001010 8
#1385000
1"
#1390000
0"
b10001011 8
#1395000
1"
#1400000
0"
b10001100 8
#1405000
1"
#1410000
0"
b10001101 8
#1415000
1"
#1420000
0"
b10001110 8
#1425000
1"
#1430000
0"
b10001111 8
#1435000
1"
#1440000
0"
b10010000 8
#1445000
1"
#1450000
0"
b10010001 8
#1455000
1"
#1460000
0"
b10010010 8
#1465000
1"
#1470000
0"
b10010011 8
#1475000
1"
#1480000
0"
b10010100 8
#1485000
1"
#1490000
0"
b10010101 8
#1495000
1"
#1500000
0"
b10010110 8
#1505000
1"
#1510000
0"
b10010111 8
#1515000
1"
#1520000
0"
b10011000 8
#1525000
1"
#1530000
0"
b10011001 8
#1535000
1"
#1540000
0"
b10011010 8
#1545000
1"
#1550000
0"
b10011011 8
#1555000
1"
#1560000
0"
b10011100 8
#1565000
1"
#1570000
0"
b10011101 8
#1575000
1"
#1580000
0"
b10011110 8
#1585000
1"
#1590000
0"
b10011111 8
#1595000
1"
#1600000
0"
b10100000 8
#1605000
1"
#1610000
0"
b10100001 8
#1615000
1"
#1620000
0"
b10100010 8
#1625000
1"
#1630000
0"
b10100011 8
#1635000
1"
#1640000
0"
b10100100 8
#1645000
1"
#1650000
0"
b10100101 8
#1655000
1"
#1660000
0"
b10100110 8
#1665000
1"
#1670000
0"
b10100111 8
#1675000
1"
#1680000
0"
b10101000 8
#1685000
1"
#1690000
0"
b10101001 8
#1695000
1"
#1700000
0"
b10101010 8
#1705000
1"
#1710000
0"
b10101011 8
#1715000
1"
#1720000
0"
b10101100 8
#1725000
1"
#1730000
0"
b10101101 8
#1735000
1"
#1740000
0"
b10101110 8
#1745000
1"
#1750000
0"
b10101111 8
#1755000
1"
#1760000
0"
b10110000 8
#1765000
1"
#1770000
0"
b10110001 8
#1775000
1"
#1780000
0"
b10110010 8
#1785000
1"
#1790000
0"
b10110011 8
#1795000
1"
#1800000
0"
b10110100 8
#1805000
1"
#1810000
0"
b10110101 8
#1815000
1"
#1820000
0"
b10110110 8
#1825000
1"
#1830000
0"
b10110111 8
#1835000
1"
#1840000
0"
b10111000 8
#1845000
1"
#1850000
0"
b10111001 8
#1855000
1"
#1860000
0"
b10111010 8
#1865000
1"
#1870000
0"
b10111011 8
#1875000
1"
#1880000
0"
b10111100 8
#1885000
1"
#1890000
0"
b10111101 8
#1895000
1"
x6
x5
x4
x3
x2
x1
x0
x/
x.
x-
x,
x+
x*
x)
x(
x'
17
#1900000
0"
b10111110 8
#1905000
1"
#1910000
0"
b10111111 8
#1915000
1"
#1920000
0"
b11000000 8
#1925000
1"
#1930000
0"
b11000001 8
#1935000
b11111011 $
b110 %
1#
1"
07
#1940000
0"
b11000010 8
#1945000
0#
b100 9
b1111111111100010 ;
1"
0.
0-
0,
0+
0*
0)
0(
0'
#1950000
0"
b11000011 8
#1955000
1"
16
15
04
13
12
11
10
1/
#1960000
0"
b11000100 8
#1965000
1"
#1970000
0"
b11000101 8
#1975000
1"
#1980000
0"
b11000110 8
#1985000
1"
#1990000
0"
b11000111 8
#1995000
1"
#2000000
0"
b11001000 8
#2005000
1"
#2010000
0"
b11001001 8
#2015000
1"
#2020000
0"
b11001010 8
#2025000
1"
#2030000
0"
b11001011 8
#2035000
1"
#2040000
0"
b11001100 8
#2045000
1"
#2050000
0"
b11001101 8
#2055000
1"
#2060000
0"
b11001110 8
#2065000
1"
#2070000
0"
b11001111 8
#2075000
1"
#2080000
0"
b11010000 8
#2085000
1"
#2090000
0"
b11010001 8
#2095000
1"
#2100000
0"
b11010010 8
#2105000
1"
#2110000
0"
b11010011 8
#2115000
1"
#2120000
0"
b11010100 8
#2125000
1"
#2130000
0"
b11010101 8
#2135000
1"
#2140000
0"
b11010110 8
#2145000
1"
#2150000
0"
b11010111 8
#2155000
1"
#2160000
0"
b11011000 8
#2165000
1"
#2170000
0"
b11011001 8
#2175000
1"
#2180000
0"
b11011010 8
#2185000
1"
#2190000
0"
b11011011 8
#2195000
1"
#2200000
0"
b11011100 8
#2205000
1"
#2210000
0"
b11011101 8
#2215000
1"
#2220000
0"
b11011110 8
#2225000
1"
#2230000
0"
b11011111 8
#2235000
1"
#2240000
0"
b11100000 8
#2245000
1"
#2250000
0"
b11100001 8
#2255000
1"
#2260000
0"
b11100010 8
#2265000
1"
#2270000
0"
b11100011 8
#2275000
1"
#2280000
0"
b11100100 8
#2285000
1"
#2290000
0"
b11100101 8
#2295000
1"
#2300000
0"
b11100110 8
#2305000
1"
#2310000
0"
b11100111 8
#2315000
1"
#2320000
0"
b11101000 8
#2325000
1"
#2330000
0"
b11101001 8
#2335000
1"
#2340000
0"
b11101010 8
#2345000
1"
#2350000
0"
b11101011 8
#2355000
1"
#2360000
0"
b11101100 8
#2365000
1"
#2370000
0"
b11101101 8
#2375000
1"
#2380000
0"
b11101110 8
#2385000
1"
#2390000
0"
b11101111 8
#2395000
1"
#2400000
0"
b11110000 8
#2405000
1"
#2410000
0"
b11110001 8
#2415000
1"
#2420000
0"
b11110010 8
#2425000
1"
#2430000
0"
b11110011 8
#2435000
1"
#2440000
0"
b11110100 8
#2445000
1"
#2450000
0"
b11110101 8
#2455000
1"
#2460000
0"
b11110110 8
#2465000
1"
#2470000
0"
b11110111 8
#2475000
1"
#2480000
0"
b11111000 8
#2485000
1"
#2490000
0"
b11111001 8
#2495000
1"
#2500000
0"
b11111010 8
#2505000
1"
#2510000
0"
b11111011 8
#2515000
1"
x6
x5
x4
x3
x2
x1
x0
x/
x.
x-
x,
x+
x*
x)
x(
x'
17
#2520000
0"
b11111100 8
#2525000
1"
#2530000
0"
b11111101 8
#2535000
1"
#2540000
0"
b11111110 8
#2545000
1"
#2550000
0"
b11111111 8
#2555000
b11111001 $
b1000 %
1#
1"
07
#2560000
0"
b100000000 8
#2565000
0#
b101 9
b1111111111001000 ;
1"
0.
0-
0,
0+
0*
0)
0(
0'
#2570000
0"
b100000001 8
#2575000
1"
16
05
04
13
12
11
10
1/
#2580000
0"
b100000010 8
#2585000
1"
#2590000
0"
b100000011 8
#2595000
1"
#2600000
0"
b100000100 8
#2605000
1"
#2610000
0"
b100000101 8
#2615000
1"
#2620000
0"
b100000110 8
#2625000
1"
#2630000
0"
b100000111 8
#2635000
1"
#2640000
0"
b100001000 8
#2645000
1"
#2650000
0"
b100001001 8
#2655000
1"
#2660000
0"
b100001010 8
#2665000
1"
#2670000
0"
b100001011 8
#2675000
1"
#2680000
0"
b100001100 8
#2685000
1"
#2690000
0"
b100001101 8
#2695000
1"
#2700000
0"
b100001110 8
#2705000
1"
#2710000
0"
b100001111 8
#2715000
1"
#2720000
0"
b100010000 8
#2725000
1"
#2730000
0"
b100010001 8
#2735000
1"
#2740000
0"
b100010010 8
#2745000
1"
#2750000
0"
b100010011 8
#2755000
1"
#2760000
0"
b100010100 8
#2765000
1"
#2770000
0"
b100010101 8
#2775000
1"
#2780000
0"
b100010110 8
#2785000
1"
#2790000
0"
b100010111 8
#2795000
1"
#2800000
0"
b100011000 8
#2805000
1"
#2810000
0"
b100011001 8
#2815000
1"
#2820000
0"
b100011010 8
#2825000
1"
#2830000
0"
b100011011 8
#2835000
1"
#2840000
0"
b100011100 8
#2845000
1"
#2850000
0"
b100011101 8
#2855000
1"
#2860000
0"
b100011110 8
#2865000
1"
#2870000
0"
b100011111 8
#2875000
1"
#2880000
0"
b100100000 8
#2885000
1"
#2890000
0"
b100100001 8
#2895000
1"
#2900000
0"
b100100010 8
#2905000
1"
#2910000
0"
b100100011 8
#2915000
1"
#2920000
0"
b100100100 8
#2925000
1"
#2930000
0"
b100100101 8
#2935000
1"
#2940000
0"
b100100110 8
#2945000
1"
#2950000
0"
b100100111 8
#2955000
1"
#2960000
0"
b100101000 8
#2965000
1"
#2970000
0"
b100101001 8
#2975000
1"
#2980000
0"
b100101010 8
#2985000
1"
#2990000
0"
b100101011 8
#2995000
1"
#3000000
0"
b100101100 8
#3005000
1"
#3010000
0"
b100101101 8
#3015000
1"
#3020000
0"
b100101110 8
#3025000
1"
#3030000
0"
b100101111 8
#3035000
1"
#3040000
0"
b100110000 8
#3045000
1"
#3050000
0"
b100110001 8
#3055000
1"
#3060000
0"
b100110010 8
#3065000
1"
#3070000
0"
b100110011 8
#3075000
1"
#3080000
0"
b100110100 8
#3085000
1"
#3090000
0"
b100110101 8
#3095000
1"
#3100000
0"
b100110110 8
#3105000
1"
#3110000
0"
b100110111 8
#3115000
1"
#3120000
0"
b100111000 8
#3125000
1"
#3130000
0"
b100111001 8
#3135000
1"
x6
x5
x4
x3
x2
x1
x0
x/
x.
x-
x,
x+
x*
x)
x(
x'
17
#3140000
0"
b100111010 8
#3145000
1"
#3150000
0"
b100111011 8
#3155000
1"
#3160000
0"
b100111100 8
#3165000
1"
#3170000
0"
b100111101 8
#3175000
b11111011 $
b11111010 %
1#
1"
07
#3180000
0"
b100111110 8
#3185000
0#
b110 9
b11110 ;
1"
0.
0-
0,
0+
0*
0)
0(
0'
#3190000
0"
b100111111 8
#3195000
1"
16
15
04
13
12
11
10
1/
#3200000
0"
b101000000 8
#3205000
1"
#3210000
0"
b101000001 8
#3215000
1"
#3220000
0"
b101000010 8
#3225000
1"
#3230000
0"
b101000011 8
#3235000
1"
#3240000
0"
b101000100 8
#3245000
1"
#3250000
0"
b101000101 8
#3255000
1"
#3260000
0"
b101000110 8
#3265000
1"
#3270000
0"
b101000111 8
#3275000
1"
#3280000
0"
b101001000 8
#3285000
1"
#3290000
0"
b101001001 8
#3295000
1"
#3300000
0"
b101001010 8
#3305000
1"
#3310000
0"
b101001011 8
#3315000
1"
#3320000
0"
b101001100 8
#3325000
1"
#3330000
0"
b101001101 8
#3335000
1"
#3340000
0"
b101001110 8
#3345000
1"
#3350000
0"
b101001111 8
#3355000
1"
#3360000
0"
b101010000 8
#3365000
1"
#3370000
0"
b101010001 8
#3375000
1"
#3380000
0"
b101010010 8
#3385000
1"
#3390000
0"
b101010011 8
#3395000
1"
#3400000
0"
b101010100 8
#3405000
1"
#3410000
0"
b101010101 8
#3415000
1"
#3420000
0"
b101010110 8
#3425000
1"
#3430000
0"
b101010111 8
#3435000
1"
#3440000
0"
b101011000 8
#3445000
1"
#3450000
0"
b101011001 8
#3455000
1"
#3460000
0"
b101011010 8
#3465000
1"
#3470000
0"
b101011011 8
#3475000
1"
#3480000
0"
b101011100 8
#3485000
1"
#3490000
0"
b101011101 8
#3495000
1"
#3500000
0"
b101011110 8
#3505000
1"
#3510000
0"
b101011111 8
#3515000
1"
#3520000
0"
b101100000 8
#3525000
1"
#3530000
0"
b101100001 8
#3535000
1"
#3540000
0"
b101100010 8
#3545000
1"
#3550000
0"
b101100011 8
#3555000
1"
#3560000
0"
b101100100 8
#3565000
1"
#3570000
0"
b101100101 8
#3575000
1"
#3580000
0"
b101100110 8
#3585000
1"
#3590000
0"
b101100111 8
#3595000
1"
#3600000
0"
b101101000 8
#3605000
1"
#3610000
0"
b101101001 8
#3615000
1"
#3620000
0"
b101101010 8
#3625000
1"
#3630000
0"
b101101011 8
#3635000
1"
#3640000
0"
b101101100 8
#3645000
1"
#3650000
0"
b101101101 8
#3655000
1"
#3660000
0"
b101101110 8
#3665000
1"
#3670000
0"
b101101111 8
#3675000
1"
#3680000
0"
b101110000 8
#3685000
1"
#3690000
0"
b101110001 8
#3695000
1"
#3700000
0"
b101110010 8
#3705000
1"
#3710000
0"
b101110011 8
#3715000
1"
#3720000
0"
b101110100 8
#3725000
1"
#3730000
0"
b101110101 8
#3735000
1"
#3740000
0"
b101110110 8
#3745000
1"
#3750000
0"
b101110111 8
#3755000
1"
#3760000
0"
b101111000 8
#3765000
1"
#3770000
0"
b101111001 8
#3775000
1"
#3780000
0"
b101111010 8
#3785000
1"
#3790000
0"
b101111011 8
#3795000
1"
#3800000
0"
b101111100 8
#3805000
1"
#3810000
0"
b101111101 8
#3815000
1"
#3820000
0"
b101111110 8
#3825000
1"
x6
x5
x4
x3
x2
x1
x0
x/
x.
x-
x,
x+
x*
x)
x(
x'
17
#3830000
0"
b101111111 8
#3835000
1"
#3840000
0"
b110000000 8
#3845000
1"
#3850000
0"
b110000001 8
#3855000
1"
#3860000
0"
b110000010 8
#3865000
b11110111 $
b11111100 %
1#
1"
07
#3870000
0"
b110000011 8
#3875000
0#
b111 9
b100100 ;
1"
0.
0-
0,
0+
0*
0)
0(
0'
#3880000
0"
b110000100 8
#3885000
1"
16
15
14
03
12
11
10
1/
#3890000
0"
b110000101 8
#3895000
1"
#3900000
0"
b110000110 8
#3905000
1"
#3910000
0"
b110000111 8
#3915000
1"
#3920000
0"
b110001000 8
#3925000
1"
#3930000
0"
b110001001 8
#3935000
1"
#3940000
0"
b110001010 8
#3945000
1"
#3950000
0"
b110001011 8
#3955000
1"
#3960000
0"
b110001100 8
#3965000
1"
#3970000
0"
b110001101 8
#3975000
1"
#3980000
0"
b110001110 8
#3985000
1"
#3990000
0"
b110001111 8
#3995000
1"
#4000000
0"
b110010000 8
#4005000
1"
#4010000
0"
b110010001 8
#4015000
1"
#4020000
0"
b110010010 8
#4025000
1"
#4030000
0"
b110010011 8
#4035000
1"
#4040000
0"
b110010100 8
#4045000
1"
#4050000
0"
b110010101 8
#4055000
1"
#4060000
0"
b110010110 8
#4065000
1"
#4070000
0"
b110010111 8
#4075000
1"
#4080000
0"
b110011000 8
#4085000
1"
#4090000
0"
b110011001 8
#4095000
1"
#4100000
0"
b110011010 8
#4105000
1"
#4110000
0"
b110011011 8
#4115000
1"
#4120000
0"
b110011100 8
#4125000
1"
#4130000
0"
b110011101 8
#4135000
1"
#4140000
0"
b110011110 8
#4145000
1"
#4150000
0"
b110011111 8
#4155000
1"
#4160000
0"
b110100000 8
#4165000
1"
#4170000
0"
b110100001 8
#4175000
1"
#4180000
0"
b110100010 8
#4185000
1"
#4190000
0"
b110100011 8
#4195000
1"
#4200000
0"
b110100100 8
#4205000
1"
#4210000
0"
b110100101 8
#4215000
1"
#4220000
0"
b110100110 8
#4225000
1"
#4230000
0"
b110100111 8
#4235000
1"
#4240000
0"
b110101000 8
#4245000
1"
#4250000
0"
b110101001 8
#4255000
1"
#4260000
0"
b110101010 8
#4265000
1"
#4270000
0"
b110101011 8
#4275000
1"
#4280000
0"
b110101100 8
#4285000
1"
#4290000
0"
b110101101 8
#4295000
1"
#4300000
0"
b110101110 8
#4305000
1"
#4310000
0"
b110101111 8
#4315000
1"
#4320000
0"
b110110000 8
#4325000
1"
#4330000
0"
b110110001 8
#4335000
1"
#4340000
0"
b110110010 8
#4345000
1"
#4350000
0"
b110110011 8
#4355000
1"
#4360000
0"
b110110100 8
#4365000
1"
#4370000
0"
b110110101 8
#4375000
1"
#4380000
0"
b110110110 8
#4385000
1"
#4390000
0"
b110110111 8
#4395000
1"
#4400000
0"
b110111000 8
#4405000
1"
#4410000
0"
b110111001 8
#4415000
1"
#4420000
0"
b110111010 8
#4425000
1"
#4430000
0"
b110111011 8
#4435000
1"
#4440000
0"
b110111100 8
#4445000
1"
#4450000
0"
b110111101 8
#4455000
1"
#4460000
0"
b110111110 8
#4465000
1"
#4470000
0"
b110111111 8
#4475000
1"
#4480000
0"
b111000000 8
#4485000
1"
#4490000
0"
b111000001 8
#4495000
1"
#4500000
0"
b111000010 8
#4505000
1"
#4510000
0"
b111000011 8
#4515000
1"
x6
x5
x4
x3
x2
x1
x0
x/
x.
x-
x,
x+
x*
x)
x(
x'
17
#4520000
0"
b111000100 8
#4525000
1"
#4530000
0"
b111000101 8
#4535000
1"
#4540000
0"
b111000110 8
#4545000
1"
#4550000
0"
b111000111 8
